{
  "project_info": {
    "project_number": "770644533676",
    "project_id": "velobruehl-a3044",
    "storage_bucket": "velobruehl-a3044.appspot.com"
  },
  "client": [
    {
      "client_info": {
        "mobilesdk_app_id": "1:770644533676:android:ead97c5349b255677eda09",
        "android_client_info": {
          "package_name": "com.velobruehl.app"
        }
      },
      "oauth_client": [
        {
          "client_id": "770644533676-7nmv7qnijc6i4ggerhdkjce68hpas95e.apps.googleusercontent.com",
          "client_type": 3
        }
      ],
      "api_key": [
        {
          "current_key": "AIzaSyDFaWMeBotmYhsiqv1y_B3zvEFoY817pUM"
        }
      ],
      "services": {
        "appinvite_service": {
          "other_platform_oauth_client": [
            {
              "client_id": "770644533676-7nmv7qnijc6i4ggerhdkjce68hpas95e.apps.googleusercontent.com",
              "client_type": 3
            },
            {
              "client_id": "770644533676-tnluqr730rddkk365k0cvn6h7nc229sd.apps.googleusercontent.com",
              "client_type": 2,
              "ios_info": {
                "bundle_id": "com.velobruehl.app"
              }
            }
          ]
        }
      }
    }
  ],
  "configuration_version": "1"
}